%YAML 1.1
%TAG !u! tag:unity3d.com,2011:
--- !u!1001 &8735859762277532
PrefabInstance:
  m_ObjectHideFlags: 0
  serializedVersion: 2
  m_Modification:
    m_TransformParent: {fileID: 0}
    m_Modifications:
    - target: {fileID: 523030366086789353, guid: 35405162b5da55247979a27c8afb95e8, type: 3}
      propertyPath: m_Name
      value: Player_rig
      objectReference: {fileID: 0}
    - target: {fileID: 867503629067100755, guid: 35405162b5da55247979a27c8afb95e8, type: 3}
      propertyPath: m_RootOrder
      value: 0
      objectReference: {fileID: 0}
    - target: {fileID: 867503629067100755, guid: 35405162b5da55247979a27c8afb95e8, type: 3}
      propertyPath: m_LocalPosition.x
      value: 0
      objectReference: {fileID: 0}
    - target: {fileID: 867503629067100755, guid: 35405162b5da55247979a27c8afb95e8, type: 3}
      propertyPath: m_LocalPosition.y
      value: 0
      objectReference: {fileID: 0}
    - target: {fileID: 867503629067100755, guid: 35405162b5da55247979a27c8afb95e8, type: 3}
      propertyPath: m_LocalPosition.z
      value: 0
      objectReference: {fileID: 0}
    - target: {fileID: 867503629067100755, guid: 35405162b5da55247979a27c8afb95e8, type: 3}
      propertyPath: m_LocalRotation.w
      value: 1
      objectReference: {fileID: 0}
    - target: {fileID: 867503629067100755, guid: 35405162b5da55247979a27c8afb95e8, type: 3}
      propertyPath: m_LocalRotation.x
      value: 0
      objectReference: {fileID: 0}
    - target: {fileID: 867503629067100755, guid: 35405162b5da55247979a27c8afb95e8, type: 3}
      propertyPath: m_LocalRotation.y
      value: 0
      objectReference: {fileID: 0}
    - target: {fileID: 867503629067100755, guid: 35405162b5da55247979a27c8afb95e8, type: 3}
      propertyPath: m_LocalRotation.z
      value: 0
      objectReference: {fileID: 0}
    - target: {fileID: 867503629067100755, guid: 35405162b5da55247979a27c8afb95e8, type: 3}
      propertyPath: m_LocalEulerAnglesHint.x
      value: 0
      objectReference: {fileID: 0}
    - target: {fileID: 867503629067100755, guid: 35405162b5da55247979a27c8afb95e8, type: 3}
      propertyPath: m_LocalEulerAnglesHint.y
      value: 0
      objectReference: {fileID: 0}
    - target: {fileID: 867503629067100755, guid: 35405162b5da55247979a27c8afb95e8, type: 3}
      propertyPath: m_LocalEulerAnglesHint.z
      value: 0
      objectReference: {fileID: 0}
    - target: {fileID: 3031355970652155236, guid: 35405162b5da55247979a27c8afb95e8, type: 3}
      propertyPath: m_Materials.Array.data[0]
      value: 
      objectReference: {fileID: 2100000, guid: dc2a969bc398e7844a3237b855fa47e8, type: 2}
    - target: {fileID: 3031355970652155236, guid: 35405162b5da55247979a27c8afb95e8, type: 3}
      propertyPath: m_Materials.Array.data[1]
      value: 
      objectReference: {fileID: 2100000, guid: 6b002d04a3698db489b6c214420511fe, type: 2}
    - target: {fileID: 6685629376575954507, guid: 35405162b5da55247979a27c8afb95e8, type: 3}
      propertyPath: m_Materials.Array.data[0]
      value: 
      objectReference: {fileID: 2100000, guid: dc2a969bc398e7844a3237b855fa47e8, type: 2}
    - target: {fileID: 6685629376575954507, guid: 35405162b5da55247979a27c8afb95e8, type: 3}
      propertyPath: m_Materials.Array.data[1]
      value: 
      objectReference: {fileID: 2100000, guid: cecf19d6aa7c9504e9550d27121ddaaa, type: 2}
    m_RemovedComponents: []
  m_SourcePrefab: {fileID: 100100000, guid: 35405162b5da55247979a27c8afb95e8, type: 3}
